{
    "Type": "awgn",
    "Seed": 82,
    "fsms":
    [
        {"name": "uu_fsm_i_latency",    "type": "latency",  "par_in": 1, "par_out": 1, "latency": 1, "resync_period": 0  },
        {"name": "uu_fsm_synchronizer", "type": "resync" ,  "par_in": 1, "par_out": 1, "latency": 1, "resync_period": 168},
        {"name": "uu_fsm_o_latency",    "type": "latency",  "par_in": 1, "par_out": 1, "latency": 1, "resync_period": 0  }
    ],
    "signals":
    [
        {"name": "i_I", "parallelism": 1,  "signed": 1, "n_bits": 12, "nf_bits": 10, "type": "input", "latency": 0, "log": 0, "match":0},
        {"name": "i_Q", "parallelism": 1,  "signed": 1, "n_bits": 12, "nf_bits": 10, "type": "input", "latency": 0, "log": 0, "match":0},
        {"name": "o_I", "parallelism": 1,  "signed": 1, "n_bits": 12, "nf_bits": 10, "type": "output","latency": 0, "log": 0, "match":0},
        {"name": "o_Q", "parallelism": 1,  "signed": 1, "n_bits": 12, "nf_bits": 10, "type": "output","latency": 0, "log": 0, "match":0}
    ]
}
