{
    "Type": "file_reader",
    "AllZeros": 0,
    "FileName": "i_file.txt",
    "DataType": "int",
    "signals":
    [
        {"name": "o_data", "parallelism": 1,  "signed": 0, "n_bits": 5, "nf_bits": 0, "type": "output", "latency": 0, "log": 0, "match":0}
    ]
}
